checking structure...
checking invariants...
checking invariant (1) `Billet::billet1': OK.
checking invariant (2) `Billet::billet2': OK.
checking invariant (3) `Billet::billet3': OK.
checking invariant (4) `Passager::passager1': OK.
checking invariant (5) `Passager::passager2': OK.
checking invariant (6) `Train::train1': OK.
checking invariant (7) `Train::train2': OK.
checking invariant (8) `Train::train5': OK.
checking invariant (9) `WagonCiterne::wagon2': OK.
checking invariant (10) `WagonCiterne::wagon3': OK.
checking invariant (11) `WagonCiterne::wagon4': OK.
checking invariant (12) `WagonCiterne::wagon5': FAILED.
  -> false : Boolean
checking invariant (13) `WagonPassager::wagon1': OK.
checked 13 invariants, 1 failure.
